%YAML 1.1
%TAG !u! tag:unity3d.com,2011:
--- !u!1045 &1
EditorBuildSettings:
  m_ObjectHideFlags: 0
  serializedVersion: 2
  m_Scenes:
  - enabled: 1
    path: Assets/SamplesResources/Scenes/0-Main.unity
    guid: a09cb257d566c489595b16ab37547666
  m_configObjects:
    UnityEditor.XR.ARCore.ARCoreSettings: {fileID: 11400000, guid: 39f1e4d8f1e43bc44b0f994dc43a8428,
      type: 2}
    com.unity.xr.arfoundation.simulation_settings: {fileID: 11400000, guid: c49f181d0c1f77c4eb27719d58cee14a,
      type: 2}
